,0
ACALD,-0.016023815209011916
ACALDtex,-0.0015619770339112332
ACALDtpp,-0.0015619770339112332
ACKr,0.024013986312277677
ACONTa,0.36624048794477854
ACONTb,0.36624048794477854
ACt2rpp,-0.0022103251762427374
ACtex,-0.0022103251762427374
ADK1,0.574301821506321
AKGDH,0.0
AKGt2rpp,-0.0008533826137688977
AKGtex,-0.0008533826137688977
ALCD2x,-0.0013850329530676843
ALDD2x,0.0
ALDD2y,0.013076804407076105
AMPtex,0.0
ATPM,0.013074115477748912
ATPS4rpp,34.73678421210474
BIOMASS_Ecoli_core_w_GAM,0.33791903176236227
CITL,0.013147507361449786
CO2tex,-44.59324802570782
CO2tpp,-44.59324802570782
CS,0.3793879953058676
CYTBDpp,29.40459158231013
D_LACt2,-0.0013576414834115015
DHAPT,0.0
ENO,-0.9120017650097896
EDA,0.0043895476261876865
EDD,0.0043895476261876865
ETOHtrpp,-0.0013850329530676843
ETOHtex,-0.0013850329530676843
EX_ac_e,0.0022103251762427374
EX_acald_e,0.0015619770339112332
EX_akg_e,0.0008533826137688977
EX_amp_e,0.0
EX_co2_e,44.59324802570782
EX_etoh_e,0.0013850329530676843
EX_for_e,-59.0
EX_fum_e,0.0
EX_glc__D_e,0.0
EX_gln__L_e,0.0
EX_glu__L_e,0.0008062607299698559
EX_gly_e,0.0
EX_h_e,-51.707679162433664
EX_h2o_e,46.90151409713645
EX_lac__D_e,0.0013576414834115015
EX_mal__L_e,0.0
EX_nh4_e,-1.8430732385055613
EX_o2_e,-14.702295791155064
EX_pi_e,-0.7375758706276215
EX_pyr_e,0.001588851355804465
EX_succ_e,0.0
F6PA,0.0
FBA,-0.35642217210699395
FBA3,0.013214632740437264
FBP,0.35642217210699395
FDH,15.468470025258199
FDH6r,31.723104743674362
FORt2pp,59.0
FORtex,59.0
FRD7,0.0
FTHFLi,11.808425231061818
FUM,0.0
FUMt2_2pp,0.0
FUMtex,0.0
G6PDH2r,0.012459339962537468
G6PP,0.0
GAPD,-0.905369640604703
GLCptspp,0.0
GLCt2pp,0.0
GLCtex,0.0
GLYt2pp,0.0
GLYtex,0.0
GHMT2r,-4.80056717484024
GLNS,0.08640589642154833
GLNabcpp,0.0
GLNtex,0.0
GLUDy,0.25103964773559473
GLUN,0.0
GLUSy,0.0
GLUt2rpp,-0.0008062607299698559
GLUtex,-0.0008062607299698559
GLYCL,-6.658787696403569
GND,0.008069792224830112
H2Otex,-46.90151409713645
H2Otpp,-46.90151409713645
HEX1,0.0
Htex,51.70903680432644
ICDHyr,0.36624048794477854
ICL,0.0
LDH_D,-0.0013576414834115015
MALS,1.509150161741056
MALt2_2pp,0.0
MALtex,0.0
MDH,1.509150161741056
ME1,0.0
ME2,0.0
MTHFC,-11.808425231061818
MTHFD,-11.80842523106177
NADH16pp,29.40459158231013
NADTRHD,16.189560640519435
NH4tex,1.8430732385055613
O2tex,14.702295791155064
O2tpp,14.702295791155064
OAADC,0.013011036655051354
PDH,3.1470009331361277
PFK,0.0
PFK_3,0.013214632740437264
PGCD,0.006632124331000905
PGI,-0.08173274147385111
PGK,0.9053696406057207
PGL,0.012459339962537468
PGM,0.9120017650104353
PIt2rpp,0.7375758706276215
PItex,0.7375758706276215
PPC,0.013626063621581707
PPCK,0.5397647667855225
PPS,0.5743018215063491
PSERT,0.006632124331000905
PSP_L,0.006632124331000905
PTAr,-0.024013986312277677
PYK,0.013024990195442981
PYRt2rpp,-0.001588851355804465
PYRtex,-0.001588851355804465
RPE,-0.23751633854005108
RPI,-0.24558613077646754
SERD_L,4.651080706581246
SUCCt2_2pp,0.0
SUCCtex,0.0
SUCOAS,0.0
TALA,-0.07097841677722583
THD2pp,0.026370409498932428
TKT1,-0.0577637840368213
TKT2,-0.17975255450297195
TPI,-0.3432075393660557
GLYTA,-7.828552638944588
ALATA,9.337702801792767
ALATA_L,9.33770280165262
